{
  "swagger" : "2.0",
  "info" : { },
  "host" : "0.0.0.0:8080",
  "basePath" : "/bankmega",
  "tags" : [ {
    "name" : "overbooking"
  } ],
  "schemes" : [ "http" ],
  "paths" : {
    "/overbooking" : {
      "get" : {
        "tags" : [ "overbooking" ],
        "consumes" : [ "application/json" ],
        "produces" : [ "application/json" ],
        "parameters" : [ ],
        "responses" : {
          "200" : {
            "description" : "Output type",
            "schema" : {
              "$ref" : "#/definitions/OverbookingList"
            }
          }
        },
        "x-camelContextId" : "bankmegajt400-overbooking",
        "x-routeId" : "route10"
      },
      "post" : {
        "tags" : [ "overbooking" ],
        "consumes" : [ "application/json" ],
        "produces" : [ "application/json" ],
        "parameters" : [ {
          "in" : "body",
          "name" : "body",
          "description" : "",
          "required" : true
        } ],
        "x-camelContextId" : "bankmegajt400-overbooking",
        "x-routeId" : "route12"
      }
    },
    "/overbooking/{id}" : {
      "get" : {
        "tags" : [ "overbooking" ],
        "consumes" : [ "application/json" ],
        "produces" : [ "application/json" ],
        "parameters" : [ {
          "name" : "id",
          "in" : "path",
          "description" : "",
          "required" : true,
          "type" : "string"
        } ],
        "responses" : {
          "200" : {
            "description" : "Output type",
            "schema" : {
              "type" : "string",
              "format" : "com.bankmega.router.Overbooking"
            }
          }
        },
        "x-camelContextId" : "bankmegajt400-overbooking",
        "x-routeId" : "route11"
      },
      "delete" : {
        "tags" : [ "overbooking" ],
        "consumes" : [ "application/json" ],
        "produces" : [ "application/json" ],
        "parameters" : [ {
          "name" : "id",
          "in" : "path",
          "description" : "",
          "required" : true,
          "type" : "string"
        } ],
        "x-camelContextId" : "bankmegajt400-overbooking",
        "x-routeId" : "route13"
      }
    }
  },
  "definitions" : {
    "Overbooking" : {
      "type" : "object",
      "properties" : {
        "id" : {
          "type" : "integer",
          "format" : "int32"
        },
        "data" : {
          "type" : "string"
        }
      }
    },
    "OverbookingList" : {
      "type" : "object",
      "properties" : {
        "overbookingList" : {
          "type" : "array",
          "items" : {
            "$ref" : "#/definitions/Overbooking"
          }
        }
      },
      "x-className" : {
        "type" : "string",
        "format" : "com.bankmega.router.OverbookingList"
      }
    }
  }
}