D:\workspace_bankmega1\bankmegajt400\bankmegajt400-inquiry\src\main\java\com\bankmega\router\FindallInquiryProcessor.java
D:\workspace_bankmega1\bankmegajt400\bankmegajt400-inquiry\src\main\java\com\bankmega\router\FindInquiryProcessor.java
D:\workspace_bankmega1\bankmegajt400\bankmegajt400-inquiry\src\main\java\com\bankmega\router\Inquiry.java
D:\workspace_bankmega1\bankmegajt400\bankmegajt400-inquiry\src\main\java\com\bankmega\router\InquiryService.java
D:\workspace_bankmega1\bankmegajt400\bankmegajt400-inquiry\src\main\java\com\bankmega\router\InquiryList.java
D:\workspace_bankmega1\bankmegajt400\bankmegajt400-inquiry\src\main\java\com\bankmega\router\InquiryRouter.java
D:\workspace_bankmega1\bankmegajt400\bankmegajt400-inquiry\src\main\java\com\bankmega\router\CreateInquiryProcessor.java
